ggtrace • ggtrace
…
# `fill` column available for `after_scale(fill)`
ggtrace::layer_after_scale(scatter_plot)
#> ✔ Executed `ggtrace_inspect_return(scatter_plot, ggplot2:::Layer$compute_geom_2)`
#> # A tibble: 234 × 5
#>    fill          x     y PANEL group
#>    <chr>     <dbl> <dbl> <fct> <int>
#>  1 #2D1160FF   1.8    29 1         2
#>  2 #2D1160FF   1.8    29 1         2
#>  3 #2D1160FF   2      31 1         2
#>  4 #2D1160FF   2      30 1         2
#>  5 #2D1160FF   2.8    26 1         2
#>  6 #2D1160FF   2.8    26 1         2
#>  7 #2D1160FF   3.1    27 1         2
#>  8 #2D1160FF   1.8    26 1         2
#>  9 #2D1160FF   1.8    25 1         2
#> 10 #2D1160FF   2      28 1         2
#> # … with 224 more rows
…
