Debugging an extension package • ggtrace
…
tracedump1 <- last_ggtrace()

Here, tracedump1 is a list of what data
looked like after each data-transformation step inside
ggplot_build(). It’s a list of data frames and there’s a
lot here, but here’s what it looks like after it’s been cleaned up with
tibble::as_tibble()

The evaluated trace expressions captured by last_ggtrace()

lapply(tracedump1, tibble::as_tibble)
#> [[1]]
#> # A tibble: 234 x 11
#>    manufacturer model      displ  year   cyl trans drv     cty   hwy fl    class
#>    <chr>        <chr>      <dbl> <int> <int> <chr> <chr> <int> <int> <chr> <chr>
#>  1 audi         a4           1.8  1999     4 auto~ f        18    29 p     comp~
#>  2 audi         a4           1.8  1999     4 manu~ f        21    29 p     comp~
#>  3 audi         a4           2    2008     4 manu~ f        20    31 p     comp~
#>  4 audi         a4           2    2008     4 auto~ f        21    30 p     comp~
#>  5 audi         a4           2.8  1999     6 auto~ f        16    26 p     comp~
#>  6 audi         a4           2.8  1999     6 manu~ f        18    26 p     comp~
#>  7 audi         a4           3.1  2008     6 auto~ f        18    27 p     comp~
#>  8 audi         a4 quattro   1.8  1999     4 manu~ 4        18    26 p     comp~
#>  9 audi         a4 quattro   1.8  1999     4 auto~ 4        16    25 p     comp~
#> 10 audi         a4 quattro   2    2008     4 manu~ 4        20    28 p     comp~
#> # ... with 224 more rows
#> 
#> [[2]]
#> # A tibble: 234 x 11
#>    manufacturer model      displ  year   cyl trans drv     cty   hwy fl    class
#>    <chr>        <chr>      <dbl> <int> <int> <chr> <chr> <int> <int> <chr> <chr>
#>  1 audi         a4           1.8  1999     4 auto~ f        18    29 p     comp~
#>  2 audi         a4           1.8  1999     4 manu~ f        21    29 p     comp~
#>  3 audi         a4           2    2008     4 manu~ f        20    31 p     comp~
#>  4 audi         a4           2    2008     4 auto~ f        21    30 p     comp~
#>  5 audi         a4           2.8  1999     6 auto~ f        16    26 p     comp~
#>  6 audi         a4           2.8  1999     6 manu~ f        18    26 p     comp~
#>  7 audi         a4           3.1  2008     6 auto~ f        18    27 p     comp~
#>  8 audi         a4 quattro   1.8  1999     4 manu~ 4        18    26 p     comp~
#>  9 audi         a4 quattro   1.8  1999     4 auto~ 4        16    25 p     comp~
#> 10 audi         a4 quattro   2    2008     4 manu~ 4        20    28 p     comp~
#> # ... with 224 more rows
#> 
#> [[3]]
#> # A tibble: 234 x 12
#>    manufacturer model      displ  year   cyl trans drv     cty   hwy fl    class
#>    <chr>        <chr>      <dbl> <int> <int> <chr> <chr> <int> <int> <chr> <chr>
#>  1 audi         a4           1.8  1999     4 auto~ f        18    29 p     comp~
#>  2 audi         a4           1.8  1999     4 manu~ f        21    29 p     comp~
#>  3 audi         a4           2    2008     4 manu~ f        20    31 p     comp~
#>  4 audi         a4           2    2008     4 auto~ f        21    30 p     comp~
#>  5 audi         a4           2.8  1999     6 auto~ f        16    26 p     comp~
#>  6 audi         a4           2.8  1999     6 manu~ f        18    26 p     comp~
#>  7 audi         a4           3.1  2008     6 auto~ f        18    27 p     comp~
#>  8 audi         a4 quattro   1.8  1999     4 manu~ 4        18    26 p     comp~
#>  9 audi         a4 quattro   1.8  1999     4 auto~ 4        16    25 p     comp~
#> 10 audi         a4 quattro   2    2008     4 manu~ 4        20    28 p     comp~
#> # ... with 224 more rows, and 1 more variable: PANEL <fct>
#> 
#> [[4]]
#> # A tibble: 234 x 4
#>    fill      x PANEL group
#>    <chr> <int> <fct> <int>
#>  1 f        29 1         2
#>  2 f        29 1         2
#>  3 f        31 1         2
#>  4 f        30 1         2
#>  5 f        26 1         2
#>  6 f        26 1         2
#>  7 f        27 1         2
#>  8 4        26 1         1
#>  9 4        25 1         1
#> 10 4        28 1         1
#> # ... with 224 more rows
#> 
#> [[5]]
#> # A tibble: 234 x 4
#>    fill      x PANEL group
#>    <chr> <int> <fct> <int>
#>  1 f        29 1         2
#>  2 f        29 1         2
#>  3 f        31 1         2
#>  4 f        30 1         2
#>  5 f        26 1         2
#>  6 f        26 1         2
#>  7 f        27 1         2
#>  8 4        26 1         1
#>  9 4        25 1         1
#> 10 4        28 1         1
#> # ... with 224 more rows
#> 
#> [[6]]
#> # A tibble: 234 x 4
#>    fill      x PANEL group
#>    <chr> <dbl> <fct> <int>
#>  1 f        29 1         2
#>  2 f        29 1         2
#>  3 f        31 1         2
#>  4 f        30 1         2
#>  5 f        26 1         2
#>  6 f        26 1         2
#>  7 f        27 1         2
#>  8 4        26 1         1
#>  9 4        25 1         1
#> 10 4        28 1         1
#> # ... with 224 more rows
…
ggtrace(Stat$setup_data, -1, verbose = FALSE)
#> `Stat$setup_data` now being traced.

# plot not printed for space
p + aes(fill = drv)
#> Triggering trace on `Stat$setup_data`
#> Untracing `Stat$setup_data` on exit.

We see that the data contains information about the supplied
aesthetics and the calculated PANEL and group
information.

tibble::as_tibble(last_ggtrace()[[1]])
#> # A tibble: 234 x 4
#>    fill      x PANEL group
#>    <chr> <dbl> <fct> <int>
#>  1 f        29 1         2
#>  2 f        29 1         2
#>  3 f        31 1         2
#>  4 f        30 1         2
#>  5 f        26 1         2
#>  6 f        26 1         2
#>  7 f        27 1         2
#>  8 4        26 1         1
#>  9 4        25 1         1
#> 10 4        28 1         1
#> # ... with 224 more rows
…
# Label the trace dumps
names(tracedump3) <- c(paste0("expected", 1:2), paste0("unexpected", 1:2))
names(tracedump3)
#> [1] "expected1"   "expected2"   "unexpected1" "unexpected2"

Now tracedump3 holds the value for data
from inside the setup_data method for our four plots of
interest.

The value of tracedump3

lapply(tracedump3, tibble::as_tibble)
#> $expected1
#> # A tibble: 234 x 4
#>    colour     x PANEL group
#>    <chr>  <dbl> <fct> <int>
#>  1 f         29 1         2
#>  2 f         29 1         2
#>  3 f         31 1         2
#>  4 f         30 1         2
#>  5 f         26 1         2
#>  6 f         26 1         2
#>  7 f         27 1         2
#>  8 4         26 1         1
#>  9 4         25 1         1
#> 10 4         28 1         1
#> # ... with 224 more rows
#> 
#> $expected2
#> # A tibble: 234 x 3
#>        x group PANEL
#>    <dbl> <int> <fct>
#>  1    29     2 1    
#>  2    29     2 1    
#>  3    31     2 1    
#>  4    30     2 1    
#>  5    26     2 1    
#>  6    26     2 1    
#>  7    27     2 1    
#>  8    26     1 1    
#>  9    25     1 1    
#> 10    28     1 1    
#> # ... with 224 more rows
#> 
#> $unexpected1
#> # A tibble: 234 x 4
#>    shape     x PANEL group
#>    <chr> <dbl> <fct> <int>
#>  1 f        29 1         2
#>  2 f        29 1         2
#>  3 f        31 1         2
#>  4 f        30 1         2
#>  5 f        26 1         2
#>  6 f        26 1         2
#>  7 f        27 1         2
#>  8 4        26 1         1
#>  9 4        25 1         1
#> 10 4        28 1         1
#> # ... with 224 more rows
#> 
#> $unexpected2
#> # A tibble: 234 x 5
#>    fill  colour     x PANEL group
#>    <chr> <chr>  <dbl> <fct> <int>
#>  1 p     f         29 1         8
#>  2 p     f         29 1         8
#>  3 p     f         31 1         8
#>  4 p     f         30 1         8
#>  5 p     f         26 1         8
#>  6 p     f         26 1         8
#>  7 p     f         27 1         8
#>  8 p     4         26 1         7
#>  9 p     4         25 1         7
#> 10 p     4         28 1         7
#> # ... with 224 more rows
…
