Inspect snapshots of sub-layer data — sublayer-data • ggtrace
…
# Before Stat snapshot of first layer's data
layer_before_stat()
#> ✔ Executed `ggtrace_inspect_args(last_plot(), ggplot2:::Layer$compute_statistic)$data`
#> # A tibble: 234 × 4
#>        x y          PANEL group
#>    <dbl> <mppd_dsc> <fct> <int>
#>  1   1.8 2          1         2
#>  2   1.8 2          1         2
#>  3   2   2          1         2
#>  4   2   2          1         2
#>  5   2.8 2          1         2
#>  6   2.8 2          1         2
#>  7   3.1 2          1         2
#>  8   1.8 2          1         2
#>  9   1.8 2          1         2
#> 10   2   2          1         2
#> # ℹ 224 more rows
…
